{"Arabic": "https://gitlab.com/duelists-unite/language-flags/assets/-/raw/main/ar.png"}
{"German": "https://gitlab.com/duelists-unite/language-flags/assets/-/raw/main/de.png"}
{"English": "https://gitlab.com/duelists-unite/language-flags/assets/-/raw/main/en.png"}
{"Spanish": "https://gitlab.com/duelists-unite/language-flags/assets/-/raw/main/es.png"}
{"French": "https://gitlab.com/duelists-unite/language-flags/assets/-/raw/main/fr.png"}
{"Hungarian": "https://gitlab.com/duelists-unite/language-flags/assets/-/raw/main/hu.png"}
{"Italian": "https://gitlab.com/duelists-unite/language-flags/assets/-/raw/main/it.png"}
{"Japanese": "https://gitlab.com/duelists-unite/language-flags/assets/-/raw/main/ja.png"}
{"Korean": "https://gitlab.com/duelists-unite/language-flags/assets/-/raw/main/ko.png"}
{"Portuguese": "https://gitlab.com/duelists-unite/language-flags/assets/-/raw/main/pt.png"}
{"Thai": "https://gitlab.com/duelists-unite/language-flags/assets/-/raw/main/th.png"}
{"Vietnamese": "https://gitlab.com/duelists-unite/language-flags/assets/-/raw/main/vi.png"}
{"Chinese Simplified": "https://gitlab.com/duelists-unite/language-flags/assets/-/raw/main/zhcn.png"}
{"Chinese Traditional": "https://gitlab.com/duelists-unite/language-flags/assets/-/raw/main/zhtw.png"}
